com/example/shippingservice/repository/AddressEntity.class
com/example/shippingservice/repository/ShippingRepository.class
com/example/shippingservice/config/XStreamSecurityConfig.class
com/example/shippingservice/handler/command/ShipmentEventHandler.class
com/example/shippingservice/repository/ShippingEntity.class
com/example/shippingservice/ShippingServiceApplication.class
com/example/shippingservice/aggregate/ShippingAggregate.class
